<?xml version="1.0" encoding="utf-8"?>
<!-- Generator: Adobe Illustrator 24.2.0, SVG Export Plug-In . SVG Version: 6.00 Build 0)  -->
<svg version="1.1" xmlns="http://www.w3.org/2000/svg" xmlns:xlink="http://www.w3.org/1999/xlink" x="0px" y="0px"
	 viewBox="0 0 1920 1080" enable-background="new 0 0 1920 1080" xml:space="preserve">
<g id="Outline" display="none">
	<g display="inline">
		<path fill="#FFFFFF" stroke="#000000" stroke-miterlimit="10" d="M555.5,619l-30.8-59.9V400.9c0-8.8-7.1-15.9-15.9-15.9H272.2
			c-8.8,0-15.9,7.1-15.9,15.9v158.2L225.5,619c-2.6,5-2.3,10.8,0.6,15.6c2.9,4.8,8,7.6,13.6,7.6h301.7c5.6,0,10.7-2.8,13.6-7.6
			C557.9,629.8,558.1,624,555.5,619z M270.4,400.9c0-1,0.8-1.8,1.8-1.8h236.7c1,0,1.8,0.8,1.8,1.8v152.9H270.4V400.9z M542.9,627.2
			c-0.2,0.4-0.7,0.9-1.5,0.9H239.6c-0.8,0-1.3-0.5-1.5-0.9c-0.2-0.4-0.4-1-0.1-1.7l29.6-57.6h245.8l29.6,57.6
			C543.3,626.2,543.1,626.9,542.9,627.2z"/>
		<polygon fill="#FFFFFF" stroke="#000000" stroke-miterlimit="10" points="342.5,587.2 334.3,608.8 446.7,608.8 438.5,587.2 		"/>
		<rect x="286.8" y="417.1" fill="#FFFFFF" stroke="#000000" stroke-miterlimit="10" width="207.5" height="118.8"/>
	</g>
</g>
<g id="Logo">
	<g>
		<path d="M510.6,400.9c0-1-0.8-1.8-1.8-1.8H272.2c-1,0-1.8,0.8-1.8,1.8v152.9h240.3V400.9z M494.3,535.9H286.8V417.1h207.5V535.9z"
			/>
		<path d="M513.4,567.9H267.6l-29.6,57.6c-0.4,0.7-0.2,1.4,0.1,1.7c0.2,0.4,0.7,0.9,1.5,0.9h301.7c0.8,0,1.3-0.5,1.5-0.9
			s0.4-1,0.1-1.7L513.4,567.9z M334.3,608.8l8.2-21.5h96l8.2,21.5H334.3z"/>
		<path d="M388.5,209.5c-167.9,0-304,136.1-304,304s136.1,304,304,304s304-136.1,304-304S556.4,209.5,388.5,209.5z M555,634.6
			c-2.9,4.8-8,7.6-13.6,7.6H239.6c-5.6,0-10.7-2.8-13.6-7.6c-2.9-4.8-3.1-10.6-0.6-15.6l30.8-59.9V400.9c0-8.8,7.1-15.9,15.9-15.9
			h236.7c8.8,0,15.9,7.1,15.9,15.9v158.2l30.8,59.9C558.1,624,557.9,629.8,555,634.6z"/>
		<path fill="#FFFFFF" stroke="#FFFFFF" stroke-width="3" stroke-miterlimit="10" d="M524.8,559.2V400.9c0-8.8-7.1-15.9-15.9-15.9
			H272.2c-8.8,0-15.9,7.1-15.9,15.9v158.2L225.5,619c-2.6,5-2.3,10.8,0.6,15.6c2.9,4.8,8,7.6,13.6,7.6h301.7
			c5.6,0,10.7-2.8,13.6-7.6c2.9-4.8,3.1-10.6,0.6-15.6L524.8,559.2z M270.4,400.9c0-1,0.8-1.8,1.8-1.8h236.7c1,0,1.8,0.8,1.8,1.8
			v152.9H270.4V400.9z M542.9,627.2c-0.2,0.4-0.7,0.9-1.5,0.9H239.6c-0.8,0-1.3-0.5-1.5-0.9c-0.2-0.4-0.4-1-0.1-1.7l29.6-57.6h245.8
			l29.6,57.6C543.3,626.2,543.1,626.9,542.9,627.2z"/>
		<polygon fill="#FFFFFF" stroke="#FFFFFF" stroke-width="3" stroke-miterlimit="10" points="342.5,587.2 334.3,608.8 446.7,608.8 
			438.5,587.2 		"/>
		
			<rect x="286.8" y="417.1" fill="#FFFFFF" stroke="#FFFFFF" stroke-width="3" stroke-miterlimit="10" width="207.5" height="118.8"/>
	</g>
	<g>
		<path d="M780.6,385.4c-19.6,0-33.7-7.6-41.7-14.7l5.5-18.8c7.8,7.4,20.2,15.9,36.3,15.9c11.8,0,20.8-5.9,20.8-16.3
			c0-9.8-5.5-14.9-24.7-19.6c-24.7-6.1-34.5-19.2-34.5-36.1c0-19.2,15.3-33.1,40.6-33.1c14.5,0,27.4,5.5,35.3,11.6l-5.1,16.7
			c-8.2-5.5-20-10.2-30.4-10.2c-11.6,0-18.4,5.1-18.4,13.5c0,6.9,4.1,12.2,20.2,16.1c27.4,6.9,39.2,18.4,39.2,38.8
			C823.6,374.4,802.8,385.4,780.6,385.4z"/>
		<path d="M898.2,386.3c-36.1,0-64.1-26.1-64.1-62.1s28-62.1,64.1-62.1c35.9,0,63.5,26.1,63.5,62.1S934.1,386.3,898.2,386.3z
			 M898.2,281.1c-23.5,0-39,17.6-39,43.1s15.5,43.1,39,43.1c23.1,0,38.4-17.6,38.4-43.1S921.4,281.1,898.2,281.1z"/>
		<path d="M1002.5,284v28.4h41.6v18.4h-41.6V383h-23.9V265.4h75.3V284H1002.5z"/>
		<path d="M1119.9,284v99H1096v-99h-39.8v-18.6h103.5V284H1119.9z"/>
		<path d="M1286.7,383h-17.4l-23.3-70.4c-1-2.5-2.4-8.4-2.4-9c-0.2,0.2-1.8,6.7-2.5,9l-23.3,70.4h-17.4l-40.4-117.6h23.7l23.7,73.9
			c0.8,2.5,2.2,10.2,2.4,11l2.9-11l22.7-73.9h17.1l22.9,73.9c0.8,2.7,2.7,11,2.7,11s1.4-8.2,2.4-11l23.5-73.9h22.9L1286.7,383z"/>
		<path d="M1407.6,383l-12-29H1348l-12,29H1313l50-117.6h18.6l50,117.6H1407.6z M1372,294.6l-17.4,42.7h34.7L1372,294.6z"/>
		<path d="M1540.1,383h-26.3l-32.5-46.8h-14.7V383h-23.9V265.4h46.3c27.8,0,39.8,16.5,39.8,35.5c0,15.9-8.4,28.4-23.5,32.7
			L1540.1,383z M1466.6,319.3h18.4c14.9,0,20.2-7.8,20.2-18.2c0-10.6-5.3-18.6-20.2-18.6h-18.4V319.3z"/>
		<path d="M1552.9,383V265.4h76.6V284h-52.7v27.6h42.9v18.6h-42.9v34.1h52.7V383H1552.9z"/>
		<path d="M745.9,571V453.4h76.6V472h-52.7v27.6h42.9v18.6h-42.9v34.1h52.7V571H745.9z"/>
		<path d="M924.3,571l-61.5-77.6V571h-21.4V453.4H858l61.5,77.6v-77.6H941V571H924.3z"/>
		<path d="M1020.3,574.3c-33.9,0-62.5-24.1-62.5-62.1c0-38,29.8-61.3,64.1-61.3c15.5,0,31.9,4.5,41.7,12v21.8
			c-9.8-8.2-22-14.5-39.4-14.5c-24.5,0-41.6,16.1-41.6,43.1c0,26.5,16.7,43.1,40.2,43.1c9,0,16.7-1.8,22.7-4.9v-22.9h-20.8v-17.6
			h43.7v51.9C1061.9,565.5,1043.5,574.3,1020.3,574.3z"/>
		<path d="M1090.9,571V453.4h23.9V571H1090.9z"/>
		<path d="M1220.1,571l-61.5-77.6V571h-21.4V453.4h16.7l61.5,77.6v-77.6h21.4V571H1220.1z"/>
		<path d="M1259.3,571V453.4h76.6V472h-52.7v27.6h42.9v18.6h-42.9v34.1h52.7V571H1259.3z"/>
		<path d="M1354.7,571V453.4h76.6V472h-52.7v27.6h42.9v18.6h-42.9v34.1h52.7V571H1354.7z"/>
		<path d="M1547.6,571h-26.3l-32.5-46.8h-14.7V571h-23.9V453.4h46.3c27.8,0,39.8,16.5,39.8,35.5c0,15.9-8.4,28.4-23.5,32.7
			L1547.6,571z M1474.1,507.3h18.4c14.9,0,20.2-7.8,20.2-18.2c0-10.6-5.3-18.6-20.2-18.6h-18.4V507.3z"/>
		<path d="M1560.3,571V453.4h23.9V571H1560.3z"/>
		<path d="M1689.5,571l-61.5-77.6V571h-21.4V453.4h16.7l61.5,77.6v-77.6h21.4V571H1689.5z"/>
		<path d="M1785.5,574.3c-33.9,0-62.5-24.1-62.5-62.1c0-38,29.8-61.3,64.1-61.3c15.5,0,31.9,4.5,41.7,12v21.8
			c-9.8-8.2-22-14.5-39.4-14.5c-24.5,0-41.6,16.1-41.6,43.1c0,26.5,16.7,43.1,40.2,43.1c9,0,16.7-1.8,22.7-4.9v-22.9H1790v-17.6
			h43.7v51.9C1827.1,565.5,1808.6,574.3,1785.5,574.3z"/>
		<path d="M787.3,759h-41.4V641.4h41.4c47,0,66.8,26.5,66.8,58.8S834.3,759,787.3,759z M786.1,660.6h-16.3v79.2h16.3
			c32.1,0,43.5-16.1,43.5-39.6S818.3,660.6,786.1,660.6z"/>
		<path d="M947,759l-12-29h-47.6l-12,29h-23.1l50-117.6H921l50,117.6H947z M911.4,670.6l-17.4,42.7h34.7L911.4,670.6z"/>
		<path d="M982.9,759V641.4h23.9V759H982.9z"/>
		<path d="M1029.9,759V641.4h23.9v99h52.7V759H1029.9z"/>
		<path d="M1152.2,712v47h-23.9v-47l-46.1-70.6h26.1l32.3,51.2l32.3-51.2h25.3L1152.2,712z"/>
	</g>
</g>
<g id="Low_Logo" display="none">
	<rect x="31.1" y="104" display="inline" fill="#FFFFFF" width="1852.8" height="916"/>
	<g display="inline">
		
			<image overflow="visible" width="325" height="117" xlink:href="408EDA89AB5D5E10.png"  transform="matrix(5.7009 0 0 5.7009 31.1111 180)">
		</image>
	</g>
</g>
<g id="Layer_8" display="none">
	<circle display="inline" cx="388.5" cy="503.5" r="304"/>
	<g display="inline">
		<path fill="#FFFFFF" stroke="#FFFFFF" stroke-width="3" stroke-miterlimit="10" d="M555.5,619l-30.8-59.9V400.9
			c0-8.8-7.1-15.9-15.9-15.9H272.2c-8.8,0-15.9,7.1-15.9,15.9v158.2L225.5,619c-2.6,5-2.3,10.8,0.6,15.6c2.9,4.8,8,7.6,13.6,7.6
			h301.7c5.6,0,10.7-2.8,13.6-7.6C557.9,629.8,558.1,624,555.5,619z M270.4,400.9c0-1,0.8-1.8,1.8-1.8h236.7c1,0,1.8,0.8,1.8,1.8
			v152.9H270.4V400.9z M542.9,627.2c-0.2,0.4-0.7,0.9-1.5,0.9H239.6c-0.8,0-1.3-0.5-1.5-0.9c-0.2-0.4-0.4-1-0.1-1.7l29.6-57.6h245.8
			l29.6,57.6C543.3,626.2,543.1,626.9,542.9,627.2z"/>
		<polygon fill="#FFFFFF" stroke="#FFFFFF" stroke-width="3" stroke-miterlimit="10" points="342.5,587.2 334.3,608.8 446.7,608.8 
			438.5,587.2 		"/>
		
			<rect x="286.8" y="417.1" fill="#FFFFFF" stroke="#FFFFFF" stroke-width="3" stroke-miterlimit="10" width="207.5" height="118.8"/>
	</g>
</g>
</svg>
